
User FSM is failed to authenticated.

User FSM_client_1 is successfully authenticated.

User FSM_client_1 unsuccsessfully called Read() on primer.

User FSM_client_1 unsuccsessfully called Read() on primer.

User FSM_client_1 unsuccsessfully called Read() on primer.

User FSM_client_1 unsuccsessfully called Read() on primer.

User FSM_client_1 is successfully authenticated.

User FSM_client_1 succsessfully called ListFilesInFolder() on Console.

User FSM_client_1 is successfully authenticated.

User FSM_client_1 succsessfully called ListFilesInFolder() on Console.

User FSM is failed to authenticated.

User FSM is failed to authenticated. reason: Invalid certificate name.

User FSM is failed to authenticated. reason: Invalid certificate name.

User FSM_client_1 is successfully authenticated.

User FSM_client_1 succsessfully called ListFilesInFolder() on Console.

User FSM is failed to authenticated. reason: Invalid certificate name.

User FSM is failed to authenticated. reason: Invalid certificate name.

User FSM_client_1 is successfully authenticated.

User FSM_client_1 succsessfully called ListFilesInFolder() on Console.

User FSM_client_1 is successfully authenticated.

User FSM_client_1 succsessfully called Read() on primer.txt.

User FSM_client_1 succsessfully called ListFilesInFolder() on Console.

User FSM_client_1 is successfully authenticated.

User FSM_client_1 succsessfully called Read() on primer.txt.

User FSM_client_1 is successfully authenticated.

User FSM_client_1 succsessfully called ListFilesInFolder() on Console.

User FSM_client_1 is successfully authenticated.

User FSM_client_1 succsessfully called ListFilesInFolder() on Console.

User FSM_client_1 unsuccsessfully called Delete() on primer.

User FSM_client_1 is successfully authenticated.

User FSM_client_1 unsuccsessfully called Delete() on primer.

User FSM_client_1 unsuccsessfully called Delete() on primer.

User FSM_client_1 is successfully authenticated.

User FSM_client_1 unsuccsessfully called Delete() on primer.

User FSM_client_1 is successfully authenticated.

User FSM_client_1 succsessfully called ListFilesInFolder() on Console.

User FSM_client_1 unsuccsessfully called Delete() on primer.

User FSM_client_1 unsuccsessfully called Delete() on primer.

User FSM_client_1 is successfully authenticated.

User FSM_client_1 unsuccsessfully called Delete() on primer.

User FSM_client_1 unsuccsessfully called Read() on primer.

User FSM_client_1 unsuccsessfully called Read() on primer.

User FSM_client_1 unsuccsessfully called Read() on primer.

User FSM_client_1 is successfully authenticated.

User FSM_client_1 unsuccsessfully called Read() on primer.

User FSM_client_1 unsuccsessfully called Read() on primer.

User FSM_client_1 unsuccsessfully called Read() on primer.

User FSM_client_1 unsuccsessfully called Delete() on primer.

User FSM_client_1 unsuccsessfully called Read() on primer.

User FSM_client_1 is successfully authenticated.

User FSM_client_1 unsuccsessfully called Delete() on primer.

User FSM_client_1 unsuccsessfully called Read() on primer.

User FSM_client_1 is successfully authenticated.

User FSM_client_1 unsuccsessfully called Delete() on primer.

User FSM_client_1 is successfully authenticated.

User FSM_client_1 unsuccsessfully called Delete() on primer.

User FSM_client_1 unsuccsessfully called Read() on primer.

User FSM_client_1 is successfully authenticated.

User FSM_client_1 unsuccsessfully called Delete() on primer.

User FSM_client_1 unsuccsessfully called Read() on primer.

User FSM_client_1 is successfully authenticated.

User FSM_client_1 unsuccsessfully called Read() on primer.

User FSM_client_1 unsuccsessfully called Read() on primer.

User FSM_client_1 unsuccsessfully called Read() on primer.

User FSM_client_1 unsuccsessfully called Delete() on primer.

User FSM_client_1 unsuccsessfully called Read() on primer.

User FSM_client_1 is successfully authenticated.

User FSM_client_1 unsuccsessfully called Delete() on primer.

User FSM_client_1 unsuccsessfully called Read() on primer.

User FSM_client_1 is successfully authenticated.

User FSM_client_1 unsuccsessfully called Delete() on primer.

User FSM_client_1 is successfully authenticated.

User FSM_client_1 unsuccsessfully called Delete() on primer.

User FSM_client_1 is successfully authenticated.

User FSM_client_1 unsuccsessfully called Delete() on primer.

User FSM_client_1 unsuccsessfully called Read() on primer.

User FSM_client_1 is successfully authenticated.

User FSM_client_1 unsuccsessfully called Delete() on primer.

User FSM_client_1 succsessfully called ListFilesInFolder() on Console.

User FSM_client_1 is successfully authenticated.

User FSM_client_1 unsuccsessfully called Delete() on primer.

User FSM_client_1 unsuccsessfully called Read() on primer.

User FSM_client_1 is successfully authenticated.

User FSM_client_1 unsuccsessfully called Delete() on primer.

User FSM_client_1 unsuccsessfully called Read() on primer.

User FSM_client_1 is successfully authenticated.

User FSM_client_1 succsessfully called Read() on primer.txt.

User FSM_client_1 unsuccsessfully called Delete() on primer.

User FSM_client_1 unsuccsessfully called Read() on primer.

User FSM_client_1 unsuccsessfully called Read() on primer.

User FSM_client_1 unsuccsessfully called Read() on primer.
